<?xml version="1.0" encoding="UTF-8" standalone="no"?>
<!-- Created with Inkscape (http://www.inkscape.org/) -->

<svg
   xmlns:dc="http://purl.org/dc/elements/1.1/"
   xmlns:cc="http://creativecommons.org/ns#"
   xmlns:rdf="http://www.w3.org/1999/02/22-rdf-syntax-ns#"
   xmlns:svg="http://www.w3.org/2000/svg"
   xmlns="http://www.w3.org/2000/svg"
   xmlns:sodipodi="http://sodipodi.sourceforge.net/DTD/sodipodi-0.dtd"
   xmlns:inkscape="http://www.inkscape.org/namespaces/inkscape"
   width="800"
   height="800"
   id="svg2"
   version="1.1"
   inkscape:version="0.48.3.1 r9886"
   sodipodi:docname="orionLogo.svg">
  <defs
     id="defs4" />
  <sodipodi:namedview
     id="base"
     pagecolor="#ffffff"
     bordercolor="#666666"
     borderopacity="1.0"
     inkscape:pageopacity="0.0"
     inkscape:pageshadow="2"
     inkscape:zoom="0.24748737"
     inkscape:cx="-720.43515"
     inkscape:cy="1173.3802"
     inkscape:document-units="px"
     inkscape:current-layer="layer1"
     showgrid="false"
     inkscape:window-width="1551"
     inkscape:window-height="1176"
     inkscape:window-x="1649"
     inkscape:window-y="24"
     inkscape:window-maximized="1" />
  <metadata
     id="metadata7">
    <rdf:RDF>
      <cc:Work
         rdf:about="">
        <dc:format>image/svg+xml</dc:format>
        <dc:type
           rdf:resource="http://purl.org/dc/dcmitype/StillImage" />
        <dc:title></dc:title>
      </cc:Work>
    </rdf:RDF>
  </metadata>
  <g
     inkscape:label="Layer 1"
     inkscape:groupmode="layer"
     id="layer1"
     transform="translate(0,-252.36218)">
    <path
       sodipodi:type="arc"
       style="fill:#ff0000;fill-rule:evenodd;stroke:none;stroke-width:1px;stroke-linecap:butt;stroke-linejoin:miter;stroke-opacity:1"
       id="path3063"
       sodipodi:cx="580.71429"
       sodipodi:cy="550.71429"
       sodipodi:rx="423.57144"
       sodipodi:ry="423.57144"
       d="m 1004.2857,550.71429 a 423.57144,423.57144 0 1 1 -847.14285,0 423.57144,423.57144 0 1 1 847.14285,0 z"
       transform="matrix(0.90062322,0,0,0.90062322,-123.00478,156.3761)" />
    <path
       sodipodi:type="arc"
       style="fill:#ffffff;fill-rule:evenodd;stroke:none"
       id="path3063-9"
       sodipodi:cx="580.71429"
       sodipodi:cy="550.71429"
       sodipodi:rx="423.57144"
       sodipodi:ry="423.57144"
       d="m 1004.2857,550.71429 a 423.57144,423.57144 0 1 1 -847.14285,0 423.57144,423.57144 0 1 1 847.14285,0 z"
       transform="matrix(0.73030282,0,0,0.73030282,-24.097287,250.17398)" />
    <path
       sodipodi:type="star"
       style="fill:#ff0000;stroke:none"
       id="path3855-0-0"
       sodipodi:sides="5"
       sodipodi:cx="240"
       sodipodi:cy="315.71429"
       sodipodi:r1="86.25013"
       sodipodi:r2="35.91436"
       sodipodi:arg1="0.53823859"
       sodipodi:arg2="1.1482471"
       inkscape:flatsided="false"
       inkscape:rounded="0"
       inkscape:randomized="0"
       d="m 314.05548,359.92822 -59.32748,-11.45836 -33.89354,51.33823 -7.43565,-59.9646 -59.29924,-16.37029 54.73198,-25.60181 -2.7554,-61.45563 41.26188,44.14182 57.59631,-21.61138 -29.23074,52.88296 z"
       transform="translate(165.92248,334.25025)"
       inkscape:transform-center-x="-2.2261773"
       inkscape:transform-center-y="-6.4884507" />
    <path
       sodipodi:type="star"
       style="fill:#ff0000;stroke:none"
       id="path3855-0-0-1"
       sodipodi:sides="5"
       sodipodi:cx="240"
       sodipodi:cy="315.71429"
       sodipodi:r1="86.25013"
       sodipodi:r2="35.91436"
       sodipodi:arg1="0.53823859"
       sodipodi:arg2="1.1482471"
       inkscape:flatsided="false"
       inkscape:rounded="0"
       inkscape:randomized="0"
       d="m 314.05548,359.92822 -59.32748,-11.45836 -33.89354,51.33823 -7.43565,-59.9646 -59.29924,-16.37029 54.73198,-25.60181 -2.7554,-61.45563 41.26188,44.14182 57.59631,-21.61138 -29.23074,52.88296 z"
       transform="translate(28.562142,467.56997)"
       inkscape:transform-center-x="-2.2261773"
       inkscape:transform-center-y="-6.4884507" />
    <path
       sodipodi:type="star"
       style="fill:#ff0000;stroke:none"
       id="path3855-0-0-14"
       sodipodi:sides="5"
       sodipodi:cx="240"
       sodipodi:cy="315.71429"
       sodipodi:r1="86.25013"
       sodipodi:r2="35.91436"
       sodipodi:arg1="0.53823859"
       sodipodi:arg2="1.1482471"
       inkscape:flatsided="false"
       inkscape:rounded="0"
       inkscape:randomized="0"
       d="m 314.05548,359.92822 -59.32748,-11.45836 -33.89354,51.33823 -7.43565,-59.9646 -59.29924,-16.37029 54.73198,-25.60181 -2.7554,-61.45563 41.26188,44.14182 57.59631,-21.61138 -29.23074,52.88296 z"
       transform="translate(313.42516,208.97092)"
       inkscape:transform-center-x="-2.2261773"
       inkscape:transform-center-y="-6.4884507" />
  </g>
</svg>
