-143300  , +1
-207700  , +1
-245100  , +1
-317300  , +1
-315500  , +1
-228000  , +1
-212800  , +1
-205100  , +1
-222600  , +1
-269500  , +1
-159400  , +1
-108400  , +1
-181900  , +1
-500000  , +1
-1098000 , -1
-868000  , -1
-5578000 , -1
-7509000 , -1
-4918000 , -1
-6512000 , -1
-8188000 , -1
-7278000 , -1