-1.3500000e+02,-1.4072000e+04,3.6861000e+03,+1
-1.3500000e+02,-1.4072000e+04,3.6861000e+03,+1
 9.4600000e+02,-1.1935000e+04,3.3912000e+03,+1
 9.4600000e+02,-1.1935000e+04,3.3912000e+03,+1
 9.4600000e+02,-1.1935000e+04,3.3912000e+03,+1
 9.4600000e+02,-1.1935000e+04,3.3912000e+03,+1
-1.3500000e+02,-1.4072000e+04,3.6861000e+03,+1
 9.4600000e+02,-1.1935000e+04,3.3912000e+03,+1
 9.4600000e+02,-1.1935000e+04,3.3912000e+03,+1
-1.3500000e+02,-1.4072000e+04,3.6861000e+03,+1
 9.4600000e+02,-1.1935000e+04,3.3912000e+03,+1
 9.4600000e+02,-1.1935000e+04,3.3912000e+03,+1
-1.3500000e+02,-1.4072000e+04,3.6861000e+03,+1
 9.4600000e+02,-1.1935000e+04,3.3912000e+03,+1
 9.4600000e+02,-1.1935000e+04,3.3912000e+03,+1
-1.3500000e+02,-1.4072000e+04,3.6861000e+03,+1
 9.4600000e+02,-1.1935000e+04,3.3912000e+03,+1
 9.4600000e+02,-1.1935000e+04,3.3912000e+03,+1
-1.3500000e+02,-1.4072000e+04,3.6861000e+03,+1
 9.4600000e+02,-1.1935000e+04,3.3912000e+03,+1
 9.4600000e+02,-1.1935000e+04,3.3912000e+03,+1
-1.3500000e+02,-1.4072000e+04,3.6861000e+03,+1
 9.4600000e+02,-1.1935000e+04,3.3912000e+03,+1
-1.3500000e+02,-1.4072000e+04,3.6861000e+03,+1
 9.4600000e+02,-1.1935000e+04,3.3912000e+03,+1
 9.4600000e+02,-1.1935000e+04,3.3912000e+03,+1
 9.4600000e+02,-1.1935000e+04,3.3912000e+03,+1
-1.3500000e+02,-1.4072000e+04,3.6861000e+03,+1
 9.4600000e+02,-1.1935000e+04,3.3912000e+03,+1
 9.4600000e+02,-1.1935000e+04,3.3912000e+03,+1
-1.3500000e+02,-1.4072000e+04,3.6861000e+03,+1
 9.4600000e+02,-1.1935000e+04,3.3912000e+03,+1
-1.3500000e+02,-1.4072000e+04,3.6861000e+03,+1
 9.4600000e+02,-1.1935000e+04,3.3912000e+03,+1
-1.3500000e+02,-1.4072000e+04,3.6861000e+03,+1
-1.3500000e+02,-1.4072000e+04,3.6861000e+03,+1
-1.3500000e+02,-1.4072000e+04,3.6861000e+03,+1
-1.3500000e+02,-1.4072000e+04,3.6861000e+03,+1
-1.3500000e+02,-1.4072000e+04,3.6861000e+03,+1
 9.4600000e+02,-1.1935000e+04,3.3912000e+03,+1
 9.4600000e+02,-1.1935000e+04,3.3912000e+03,+1
 9.4600000e+02,-1.1935000e+04,3.3912000e+03,+1
-1.3500000e+02,-1.4072000e+04,3.6861000e+03,+1
-1.3500000e+02,-1.4072000e+04,3.6861000e+03,+1
 9.4600000e+02,-1.1935000e+04,3.3912000e+03,+1
-1.3500000e+02,-1.4072000e+04,3.6861000e+03,+1
-1.3500000e+02,-1.4072000e+04,3.6861000e+03,+1
-1.3500000e+02,-1.4072000e+04,3.6861000e+03,+1
-3.2920000e+03,-1.7369000e+04,3.9535000e+03,-1
-4.2280000e+03,-2.0321000e+04,4.4583000e+03,-1
-4.2280000e+03,-2.0321000e+04,4.4583000e+03,-1
-4.2280000e+03,-2.0321000e+04,4.4583000e+03,-1
-2.8820000e+03,-1.6876000e+04,3.9177000e+03,-1
-4.2280000e+03,-2.0321000e+04,4.4583000e+03,-1
-3.2920000e+03,-1.7369000e+04,3.9535000e+03,-1
-3.2920000e+03,-1.7369000e+04,3.9535000e+03,-1
-2.8820000e+03,-1.6876000e+04,3.9177000e+03,-1
-3.2920000e+03,-1.7369000e+04,3.9535000e+03,-1
-4.2280000e+03,-2.0321000e+04,4.4583000e+03,-1
-3.2920000e+03,-1.7369000e+04,3.9535000e+03,-1
-4.1840000e+03,-2.3471000e+04,5.0962000e+03,-1
-4.1840000e+03,-2.3471000e+04,5.0962000e+03,-1
-4.1840000e+03,-2.3471000e+04,5.0962000e+03,-1
-4.1840000e+03,-2.3471000e+04,5.0962000e+03,-1
-4.1840000e+03,-2.3471000e+04,5.0962000e+03,-1
-4.1840000e+03,-2.3471000e+04,5.0962000e+03,-1